,Date,Open,High,Low,Close,Adj Close,Volume,Ticker,var_dia_price,var_dia_Volume
40,2022-09-06,0.03863200172781944,0.04193900153040886,0.036361001431941986,0.03740299865603447,0.03740299865603447,172634820.0,RVN-USD,-96.26030598511294,-97.58238031186816
41,2022-09-07,0.037257999181747437,0.038300998508930206,0.034692998975515366,0.036855001002550125,0.036855001002550125,73663529.0,RVN-USD,-1.4651168975082496,-57.329854429135445
42,2022-09-08,0.036869000643491745,0.03829199820756912,0.03514799848198891,0.036685001105070114,0.036685001105070114,42917276.0,RVN-USD,-0.4612668372149769,-41.73877279216422
43,2022-09-09,0.0366629995405674,0.06061499938368797,0.03648100048303604,0.05621799826622009,0.05621799826622009,371473899.0,RVN-USD,53.245186241661,765.5579608547383
44,2022-09-10,0.05621600151062012,0.05935699865221977,0.05007300153374672,0.05743800103664398,0.05743800103664398,211787983.0,RVN-USD,2.1701284429348964,-42.98711603422775
45,2022-09-11,0.05742499977350235,0.05742499977350235,0.05049699917435646,0.05171100050210953,0.05171100050210953,104136514.0,RVN-USD,-9.97075182139569,-50.8298287160136
46,2022-09-12,0.05171100050210953,0.07323300093412399,0.050783999264240265,0.06786700338125229,0.06786700338125229,443126732.0,RVN-USD,31.242874286456097,325.52483752240835
47,2022-09-13,0.06788799911737442,0.06829900294542313,0.057307999581098557,0.06125900149345398,0.06125900149345398,308720676.0,RVN-USD,-9.736693177208583,-30.331290417387862
48,2022-09-14,0.06026899814605713,0.07529400289058685,0.060155998915433884,0.07046200335025787,0.07046200335025787,475814272.0,RVN-USD,15.023101311547348,54.124523878666295
49,2022-09-15,0.07046400010585785,0.07058999687433243,0.05509199947118759,0.05517299845814705,0.05517299845814705,377327804.0,RVN-USD,-21.698226228554812,-20.69851069956977
